{
  "default": {
    "glew": { "baseline": "2.2.0", "port-version": 0 },
    "ngspice": { "baseline": "40", "port-version": 0 },
    "opencascade": { "baseline": "7.6.3", "port-version": 0 },
    "python3": { "baseline": "3.11.2", "port-version": 1 },
    "wxpython": { "baseline": "4.2.0", "port-version": 10 },
    "wxwidgets": { "baseline": "3.2.2", "port-version": 1 }
  }
}